time,xpos,ypos
0.0009102730819245773,0.240234375,0.0048046875
0.0027741655830082357,0.240234375,-0.0009609375000000009
0.0046380580840918945,0.240234375,0.0048046875
0.006501950585175552,0.240234375,-0.0009609375000000009
0.008365843086259211,0.240234375,0.0
0.010229735587342869,0.240234375,0.0048046875
0.012093628088426529,0.240234375,-0.0009609375000000009
0.013957520589510186,0.240234375,0.0
0.015821413090593844,0.240234375,0.0048046875
0.017685305591677504,0.240234375,-0.0009609375000000009
0.01954919809276116,0.240234375,0.0
0.02141309059384482,0.240234375,0.0048046875
0.03424360641525791,0.240234375,0.0048046875
0.03610749891634157,0.240234375,-0.0009609375000000009
0.037971391417425226,0.240234375,-0.006726562500000002
0.039835283918508886,0.240234375,-0.012492187500000002
0.041699176419592546,0.240234375,-0.0182578125
0.043563068920676205,0.240234375,-0.024023437500000005
0.04542696142175986,0.240234375,-0.029789062500000005
0.04729085392284352,0.240234375,-0.03555468750000001
0.04915474642392718,0.240234375,-0.041320312500000005
0.05101863892501084,0.240234375,-0.0470859375
0.052882531426094496,0.240234375,-0.052851562500000004
0.054746423927178156,0.240234375,-0.058617187500000015
