time,xpos,ypos
0.0009102730819245773,0.23975390625000004,0.0048046875
0.0027741655830082357,0.23879296874999995,-0.0009609375000000009
0.0046380580840918945,0.23927343750000005,0.0048046875
0.006501950585175552,0.23927343750000005,-0.0004804687499999983
0.008365843086259211,0.23879296874999995,0.0
0.010229735587342869,0.2397539062499999,0.0048046875
0.012093628088426529,0.23975390625000004,-0.0014414062499999991
0.013957520589510186,0.23975390625000004,0.0
0.015821413090593844,0.23879296874999995,0.0048046875
0.017685305591677504,0.23975390625000004,-0.0009609375000000009
0.01954919809276116,0.23879296874999995,0.0
0.02141309059384482,0.2397539062499999,0.0048046875
0.03424360641525791,0.23975390625000004,0.0048046875
0.03610749891634157,0.23975390625000004,-0.0009609375000000009
0.037971391417425226,0.240234375,0.0048046875
0.039835283918508886,0.240234375,-0.0009609375000000009
0.041699176419592546,0.240234375,0.0
0.043563068920676205,0.2397539062499999,0.005285156249999998
0.04542696142175986,0.23975390625000004,-0.0004804687499999983
0.04729085392284352,0.240234375,0.0004804687499999983
0.04915474642392718,0.2397539062499999,0.005285156249999998
0.05101863892501084,0.23975390625000004,-0.0004804687499999983
0.052882531426094496,0.23975390625000004,0.0004804687499999983
0.054746423927178156,0.240234375,0.005285156249999998
0.06757693974859125,0.24071484374999996,0.0048046875
0.0694408322496749,0.24071484374999996,-0.0009609375000000009
0.07130472475075857,0.2407148437500001,0.0048046875
0.07316861725184222,0.24071484374999996,-0.0004804687499999983
0.07503250975292587,0.24119531249999995,0.0004804687499999983
0.07689640225400954,0.2407148437500001,0.005285156249999998
0.07876029475509319,0.24119531249999995,-0.0009609375000000009
0.08062418725617686,0.24119531249999995,0.0
0.08248807975726051,0.24119531249999995,0.0048046875
0.08435197225834418,0.24071484374999996,-0.0009609375000000009
0.08621586475942783,0.24119531249999995,0.0
0.08807975726051148,0.2407148437500001,0.0048046875
0.10091027308192457,0.24071484374999996,0.004324218750000002
0.10277416558300824,0.24167578125000005,-0.0014414062499999991
0.10463805808409189,0.2407148437500001,0.0048046875
0.10650195058517556,0.24071484374999996,-0.0014414062499999991
0.10836584308625921,0.24071484374999996,0.0
0.11022973558734286,0.24119531249999995,0.004324218750000002
0.11209362808842653,0.240234375,-0.0014414062499999991
0.11395752058951018,0.240234375,0.0
0.11582141309059385,0.2407148437500001,0.004324218750000002
0.1176853055916775,0.24071484374999996,-0.0014414062499999991
0.11954919809276116,0.24071484374999996,0.0
0.12141309059384482,0.240234375,0.004324218750000002
0.1342436064152579,0.24599999999999994,-0.0144140625
0.13610749891634158,0.24840234374999995,-0.01585546875
0.13797139141742523,0.25032421875,-0.009609375
0.13983528391850888,0.25032421875,-0.01921875
0.14169917641959254,0.24648046875000004,-0.01921875
0.1435630689206762,0.240234375,-0.00912890625
0.14542696142175987,0.23591015624999997,-0.01921875
0.14729085392284352,0.240234375,-0.009609375
0.14915474642392718,0.23542968749999998,-0.017777343749999997
0.15101863892501083,0.23446875000000006,-0.017296875
0.15288253142609448,0.23494921875000002,-0.01489453125
0.15474642392717816,0.24119531249999995,-0.01393359375
0.16757693974859125,0.24407812500000006,-0.00912890625
0.1694408322496749,0.23302734375,-0.014894531249999999
0.17130472475075856,0.23927343750000005,-0.010570312499999996
0.1731686172518422,0.23879296874999995,-0.0076875
0.1750325097529259,0.24648046875,-0.0144140625
0.17689640225400954,0.24359765624999993,-0.00912890625
0.1787602947550932,0.24359765624999993,-0.014894531249999999
0.18062418725617685,0.24407812500000006,-0.00816796875
0.1824880797572605,0.23783203125,-0.006726562500000002
0.18435197225834418,0.240234375,-0.012492187499999998
0.18621586475942783,0.24984375,-0.01008984375
0.1880797572605115,0.24840234374999995,-0.0144140625
0.20091027308192458,0.2527265625,-0.012492187499999998
0.20277416558300823,0.25224609375,-0.01777734375
0.20463805808409188,0.2551289062500001,-0.0163359375
0.20650195058517556,0.24936328125,-0.015375
0.20836584308625922,0.2546484375,-0.01873828125
0.21022973558734287,0.25320703124999994,-0.007687499999999998
0.21209362808842652,0.2546484375,-0.01921875
0.21395752058951018,0.25224609375,-0.009609375
0.21582141309059386,0.24359765624999993,-0.006246093750000003
0.2176853055916775,0.240234375,-0.009128906249999999
0.21954919809276116,0.2527265625,-0.013453125
0.2214130905938448,0.2556093749999999,-0.015374999999999996
0.2342436064152579,0.25801171874999995,-0.0144140625
0.23610749891634156,0.25705078124999997,-0.019699218749999997
0.23797139141742524,0.2613749999999999,-0.013453125000000003
0.2398352839185089,0.25801171874999995,-0.01873828125
0.24169917641959254,0.26185546875,-0.019699218749999997
0.2435630689206762,0.26521874999999995,-0.014894531249999999
0.24542696142175985,0.2584921875,-0.0240234375
0.24729085392284353,0.24648046875000004,-0.01585546875
0.24915474642392718,0.24551953125000012,-0.00720703125
0.25101863892501086,0.24744140625,-0.011050781249999999
0.2528825314260945,0.25849218749999997,-0.01585546875
0.25474642392717817,0.2599335937500001,-0.013453125000000003
0.26757693974859126,0.2642578125,-0.0144140625
0.2694408322496749,0.26233593749999995,-0.018257812499999998
0.27130472475075856,0.2613749999999999,-0.011050781250000002
0.2731686172518422,0.2690625,-0.0105703125
0.27503250975292587,0.2729062500000001,-0.01921875
0.2768964022540095,0.27338671874999987,-0.011050781250000002
0.2787602947550932,0.2676210937499999,-0.01921875
0.2806241872561768,0.27050390625000004,-0.0163359375
0.28248807975726054,0.26714062500000013,-0.010089843749999999
0.2843519722583442,0.27338671875000004,-0.010089843749999999
0.28621586475942784,0.28107421875,0.0
0.2880797572605115,0.28155468749999996,-0.003843749999999999
0.3009102730819246,0.28683984374999993,0.0004804687499999983
0.30277416558300824,0.28635937499999997,-0.0004804687499999983
0.3046380580840919,0.28587890625,0.0038437500000000034
0.30650195058517554,0.2911640625,-0.0048046875
0.3083658430862592,0.2950078125,-0.009609375
0.31022973558734285,0.29452734375000006,-0.0004804687499999983
0.31209362808842656,0.29741015625,-0.005285156249999998
0.3139575205895102,0.3012539062499999,0.0004804687500000004
0.31582141309059386,0.30173437500000005,0.0086484375
0.3176853055916775,0.29981250000000004,0.005765625000000001
0.31954919809276117,0.30413671875,0.0
0.3214130905938448,0.30317578124999994,0.0048046875
0.3342436064152579,0.3103828125,0.009609375
0.33610749891634156,0.31374609375000007,0.011050781249999999
0.3379713914174252,0.31614843750000005,0.0182578125
0.33983528391850887,0.31999218749999997,0.009609375
0.3416991764195925,0.31951171875,0.0086484375
0.34356306892067623,0.3175898437500001,0.015374999999999996
0.3454269614217599,0.31855078125,0.007687499999999998
0.34729085392284353,0.324796875,0.003363281250000001
0.3491547464239272,0.32527734374999995,0.00912890625
0.35101863892501084,0.32527734374999995,0.0086484375
0.3528825314260945,0.32912109375,0.005765625000000001
0.35474642392717814,0.33248437499999994,0.00912890625
0.36757693974859124,0.33969140624999994,0.009609375
0.3694408322496749,0.3430546875,0.00816796875
0.37130472475075854,0.3358476562499999,0.010570312499999996
0.3731686172518422,0.34449609375,0.003363281250000001
0.3750325097529259,0.34707861328125006,0.004924804687500002
0.37689640225400955,0.3496611328125,0.006486328125000001
0.3787602947550932,0.35224365234375,0.008047851562500001
0.38062418725617686,0.354826171875,0.009609375000000002
0.3824880797572605,0.35740869140625003,0.011170898437500004
0.38435197225834417,0.3599912109375,0.012732421875000002
0.3862158647594278,0.36257373046875,0.014293945312500002
0.38807975726051147,0.36515625,0.015855468750000004
0.40091027308192456,0.36611718749999994,0.0144140625
0.4027741655830082,0.3685195312499999,0.01008984375
0.40463805808409187,0.3593906250000001,0.0182578125
0.4065019505851756,0.3622734375,0.013453125
0.40836584308625923,0.374765625,0.0144140625
0.4102297355873429,0.37428515624999986,0.020660156250000002
0.41209362808842653,0.37044140625,0.0163359375
0.4139575205895102,0.36900000000000005,0.019699218749999997
0.41582141309059384,0.36659765625000007,0.02354296875
0.4176853055916775,0.36611718749999994,0.022101562499999998
0.41954919809276114,0.37188281250000005,0.02450390625
0.4214130905938448,0.38101171875000006,0.024984375
0.4342436064152579,0.3877382812499999,0.01921875
0.4361074989163416,0.38533593749999995,0.02450390625
0.43797139141742525,0.3718828124999999,0.028828125
0.4398352839185089,0.374765625,0.02258203125
0.44169917641959255,0.378609375,0.01585546875
0.4435630689206762,0.3886992187499999,0.0240234375
0.44542696142175986,0.38821875000000006,0.0240234375
0.4472908539228435,0.38966015624999994,0.017296875
0.44915474642392716,0.39158203125,0.025464843750000004
0.4510186389250108,0.39254296874999994,0.02450390625
0.45288253142609447,0.393984375,0.03026953125
0.4547464239271782,0.39590625,0.0278671875
0.46757693974859127,0.41656640624999997,0.0240234375
0.4694408322496749,0.41176171874999995,0.02642578125
0.4713047247507586,0.4112812500000001,0.028828125
0.4731686172518422,0.413203125,0.0240234375
0.4750325097529259,0.40983984375000004,0.0230625
0.47689640225400953,0.40695703124999993,0.028347656250000002
0.4787602947550932,0.4083984375,0.028347656250000002
0.48062418725617684,0.4083984375,0.0230625
0.4824880797572605,0.41464453125000006,0.032671875
0.48435197225834414,0.42665624999999996,0.029308593749999997
0.48621586475942785,0.42425390625000003,0.03315234375
0.4880797572605115,0.42377343749999996,0.02450390625
0.5009102730819246,0.43001953125,0.0336328125
0.5027741655830082,0.43098046874999996,0.03795703125
0.5046380580840919,0.42713671874999987,0.0432421875
0.5065019505851756,0.42905859375000005,0.0336328125
0.5083658430862592,0.43194140625000005,0.02642578125
0.5102297355873429,0.432421875,0.035074218750000004
0.5120936280884265,0.43290234375,0.036515624999999996
0.5139575205895102,0.432421875,0.03315234375
0.5158214130905938,0.43434374999999986,0.036515624999999996
0.5176853055916775,0.4410703125,0.032671874999999996
0.5195491980927611,0.43674609375,0.04228125
0.5214130905938448,0.4357851562499999,0.04756640625
0.5342436064152579,0.4429921874999999,0.0432421875
0.5361074989163416,0.44635546875000004,0.0470859375
0.5379713914174252,0.4468359375,0.051890625
0.5398352839185089,0.4487578125,0.04564453125
0.5416991764195925,0.45116015625,0.04660546875
0.5435630689206762,0.4477968749999999,0.044203124999999996
0.5454269614217598,0.44251171874999995,0.03891796875
0.5472908539228435,0.44251171874999995,0.048046875
0.5491547464239271,0.4439531249999999,0.058617187499999994
0.5510186389250108,0.4429921874999999,0.05621484374999999
0.5528825314260944,0.4487578125,0.05717578125
0.5547464239271781,0.45019921874999996,0.04756640625
0.5675769397485912,0.45404296875,0.04948828125
0.5694408322496749,0.4550039062499999,0.05765625
0.5713047247507586,0.45260156249999994,0.06294140625
0.5731686172518422,0.45356250000000004,0.0528515625
0.5750325097529259,0.45452343749999996,0.0432421875
0.5768964022540095,0.4622109374999999,0.03699609374999999
0.5787602947550932,0.46125,0.04083984375
0.5806241872561768,0.46941796875,0.04083984375
0.5824880797572605,0.47710546875000004,0.0413203125
0.5843519722583441,0.482390625,0.039398437499999994
0.5862158647594278,0.48383203124999996,0.04228125
0.5880797572605115,0.47422265624999993,0.039878906250000005
0.6009102730819246,0.47422265624999993,0.0336328125
0.6027741655830082,0.4775859375,0.028828125
0.6046380580840919,0.4857539062500001,0.036515624999999996
0.6065019505851755,0.49344140625,0.0336328125
0.6083658430862592,0.50353125,0.028828125
0.6102297355873428,0.505453125,0.0384375
0.6120936280884265,0.50689453125,0.0432421875
0.6139575205895101,0.5107382812500001,0.03603515625
0.6158214130905938,0.5102578124999999,0.04083984375
0.6176853055916776,0.50593359375,0.0336328125
0.6195491980927612,0.50593359375,0.0317109375
0.6214130905938449,0.5049726562500001,0.03315234375
0.6342436064152579,0.5040117187500001,0.02546484375
0.6361074989163416,0.513140625,0.01921875
0.6379713914174252,0.51650390625,0.028347656250000002
0.6398352839185089,0.528515625,0.028828125
0.6416991764195925,0.53764453125,0.0230625
0.6435630689206762,0.5395664062500001,0.02690625
0.6454269614217598,0.540046875,0.02258203125
0.6472908539228435,0.5386054687499999,0.02258203125
0.6491547464239272,0.5338007812500001,0.028828125
0.6510186389250109,0.5275546875,0.02354296875
0.6528825314260945,0.5352421875,0.02354296875
0.6547464239271782,0.54821484375,0.01201171875
0.6675769397485912,0.55782421875,0.0105703125
0.6694408322496749,0.5679140625,0.011050781249999999
0.6713047247507585,0.56551171875,0.006726562500000002
0.6731686172518422,0.57512109375,0.0048046875
0.6750325097529258,0.57608203125,-0.0048046875
0.6768964022540095,0.5746406250000001,-0.0038437500000000034
0.6787602947550931,0.5727187499999999,-0.0144140625
0.6806241872561769,0.57608203125,-0.02258203125
0.6824880797572606,0.58809375,-0.02354296875
0.6843519722583442,0.597703125,-0.02738671875
0.6862158647594279,0.609234375,-0.03075
0.6880797572605115,0.6294140625,-0.028828125
0.7009102730819246,0.6486328125,-0.0259453125
0.7027741655830082,0.67217578125,-0.0336328125
0.7046380580840919,0.6947578125000001,-0.03795703125
0.7065019505851755,0.73463671875,-0.04564453125
0.7083658430862592,0.77019140625,-0.0384375
0.7102297355873428,0.77019140625,-0.0384375
0.7120936280884266,0.77019140625,-0.0384375
0.7139575205895102,0.77019140625,-0.0384375
0.7158214130905939,0.77019140625,-0.0384375
0.7176853055916775,0.77019140625,-0.0384375
0.7195491980927612,0.77019140625,-0.0384375
0.7214130905938448,0.77019140625,-0.0384375
